{
  "files": {
    "main.css": "./static/css/main.1cd03da6.chunk.css",
    "main.js": "./main.ba70e8d546b22a3bf2ef.bundle.js",
    "main.css.map": "./static/css/main.1cd03da6.chunk.css.map",
    "main.js.map": "./main.ba70e8d546b22a3bf2ef.bundle.js.map",
    "runtime~main.js": "./runtime~main.ba70e8d546b22a3bf2ef.bundle.js",
    "runtime~main.js.map": "./runtime~main.ba70e8d546b22a3bf2ef.bundle.js.map",
    "vendors~main.css": "./static/css/vendors~main.73186121.chunk.css",
    "vendors~main.js": "./vendors~main.ba70e8d546b22a3bf2ef.bundle.js",
    "vendors~main.css.map": "./static/css/vendors~main.73186121.chunk.css.map",
    "vendors~main.js.map": "./vendors~main.ba70e8d546b22a3bf2ef.bundle.js.map",
    "3.ba70e8d546b22a3bf2ef.bundle.js": "./3.ba70e8d546b22a3bf2ef.bundle.js",
    "3.ba70e8d546b22a3bf2ef.bundle.js.map": "./3.ba70e8d546b22a3bf2ef.bundle.js.map",
    "iframe.html": "./iframe.html",
    "precache-manifest.34d5a8e92d279e5432f5d8fdf40d0601.js": "./precache-manifest.34d5a8e92d279e5432f5d8fdf40d0601.js",
    "service-worker.js": "./service-worker.js",
    "static/media/code-brackets.svg": "./static/media/code-brackets.d43eb968.svg",
    "static/media/colors.svg": "./static/media/colors.8104e6f5.svg",
    "static/media/comments.svg": "./static/media/comments.3f9a1398.svg",
    "static/media/direction.svg": "./static/media/direction.d3dc567b.svg",
    "static/media/all.min.css": "./static/media/fa-solid-900.ee09ad75.woff",
    "static/media/main.css": "./static/media/flags@2x.27670c53.png",
    "static/media/flow.svg": "./static/media/flow.e3812c4f.svg",
    "static/media/plugin.svg": "./static/media/plugin.5ba97e9b.svg",
    "static/media/repo.svg": "./static/media/repo.3452b916.svg",
    "static/media/stackalt.svg": "./static/media/stackalt.66f4b748.svg",
    "vendors~main.ba70e8d546b22a3bf2ef.bundle.js.LICENSE.txt": "./vendors~main.ba70e8d546b22a3bf2ef.bundle.js.LICENSE.txt"
  },
  "entrypoints": [
    "runtime~main.ba70e8d546b22a3bf2ef.bundle.js",
    "static/css/vendors~main.73186121.chunk.css",
    "vendors~main.ba70e8d546b22a3bf2ef.bundle.js",
    "static/css/main.1cd03da6.chunk.css",
    "main.ba70e8d546b22a3bf2ef.bundle.js"
  ]
}